{
  "current_page": 1,
  "data": [
    {
      "id": "83",
      "name": "Super King - 260 x 220 (9 tog)",
      "sku": "UKDUV1007",
      "type": "simple",
      "image": "https://d1wk4hs734fd0n.cloudfront.net/assets/genesis/products/duck_down_duvet/eve-sleep-duck-down-duvet.jpg",
      "description": "",
      "product_name": "Autumn/Winter Duvet - 260x220 (9 tog)",
      "category": "Clearance",
      "first_header_cart": "the duvet - 9 Tog",
      "second_header_cart": "Super King - 260 x 220 cm",
      "original_price": "139.0000",
      "final_price": "105.0000",
      "stock": 10,
      "related_products": [],
      "upsell_products": [],
      "crosssell_products": [],
      "content_set": [
        {
          "text": "",
          "image": "https://d1wk4hs734fd0n.cloudfront.net/assets/common/images/Cart-thumb/cart-duvet-thumb.png"
        }
      ],
      "attributes": {
        "size": "260x220",
        "tog": "10.5 tog"
      },
      "option": "9 tog",
      "url": "/duck-down-duvet"
    },
    {
      "id": "75",
      "name": "Single - 140 x 200 (4.5 tog)",
      "sku": "UKDUV001",
      "type": "simple",
      "image": "https://d1wk4hs734fd0n.cloudfront.net/assets/genesis/products/duck_down_duvet/eve-sleep-duck-down-duvet.jpg",
      "description": "",
      "product_name": "Spring/Summer Duvet - 140x200 (4.5 tog)",
      "category": "Clearance",
      "first_header_cart": "the duvet - 4.5 Tog",
      "second_header_cart": "UK Single - 140 x 200 m",
      "original_price": "69.0000",
      "final_price": "45.0000",
      "stock": 16,
      "related_products": [],
      "upsell_products": [],
      "crosssell_products": [],
      "content_set": [
        {
          "text": "",
          "image": "https://d1wk4hs734fd0n.cloudfront.net/assets/common/images/Cart-thumb/cart-duvet-thumb.png"
        }
      ],
      "attributes": {
        "size": "140x200",
        "tog": "4.5 tog"
      },
      "option": "4.5 tog",
      "url": "/duck-down-duvet"
    },
    {
      "id": "80",
      "name": "Single - 140 x 200 (9 tog)",
      "sku": "UKDUV1001",
      "type": "simple",
      "image": "https://d1wk4hs734fd0n.cloudfront.net/assets/genesis/products/duck_down_duvet/eve-sleep-duck-down-duvet.jpg",
      "description": "",
      "product_name": "Autumn/Winter Duvet - 140x200 (9 tog)",
      "category": "Clearance",
      "first_header_cart": "the duvet - 9 Tog",
      "second_header_cart": "UK Single - 140 x 200 m",
      "original_price": "85.0000",
      "final_price": "55.0000",
      "stock": 5,
      "related_products": [],
      "upsell_products": [],
      "crosssell_products": [],
      "content_set": [
        {
          "text": "",
          "image": "https://d1wk4hs734fd0n.cloudfront.net/assets/common/images/Cart-thumb/cart-duvet-thumb.png"
        }
      ],
      "attributes": {
        "size": "140x200",
        "tog": "10.5 tog"
      },
      "option": "9 tog",
      "url": "/duck-down-duvet"
    },
    {
      "id": "77",
      "name": "King - 225 x 220 (4.5 tog)",
      "sku": "UKDUV005",
      "type": "simple",
      "image": "https://d1wk4hs734fd0n.cloudfront.net/assets/genesis/products/duck_down_duvet/eve-sleep-duck-down-duvet.jpg",
      "description": "",
      "product_name": "Spring/Summer Duvet - 225x220 (4.5 tog)",
      "category": "Clearance",
      "first_header_cart": "the duvet - 4.5 Tog",
      "second_header_cart": "UK King - 225 x 220 cm",
      "original_price": "99.0000",
      "final_price": "75.0000",
      "stock": 76,
      "related_products": [],
      "upsell_products": [],
      "crosssell_products": [],
      "content_set": [
        {
          "text": "",
          "image": "https://d1wk4hs734fd0n.cloudfront.net/assets/common/images/Cart-thumb/cart-duvet-thumb.png"
        }
      ],
      "attributes": {
        "size": "225x220",
        "tog": "4.5 tog"
      },
      "option": "4.5 tog",
      "url": "/duck-down-duvet"
    },
    {
      "id": "829",
      "name": "Hand & Hair Towel - 50 x 125cm",
      "sku": "EVETOW001",
      "type": "simple",
      "image": "https://d1wk4hs734fd0n.cloudfront.net/assets/genesis/products/towel/eve-sleep-towel-white.jpg",
      "description": "",
      "product_name": "Hand And Hair Towel - White",
      "category": "Clearance",
      "first_header_cart": "the towel - white",
      "second_header_cart": "50 x 125 cm",
      "original_price": "20.0000",
      "final_price": "15.0000",
      "stock": 182,
      "related_products": [],
      "upsell_products": [],
      "crosssell_products": [],
      "content_set": [
        {
          "text": "",
          "image": "https://d1wk4hs734fd0n.cloudfront.net/assets/common/images/Cart-thumb/white-towel-sm.png"
        }
      ],
      "attributes": {
        "size": "50x125",
        "color": "White"
      },
      "option": "Towel Configurable Product",
      "url": "/bathroom/towel"
    },
    {
      "id": "831",
      "name": "Bath Towel - 100 x 150cm",
      "sku": "EVETOW101",
      "type": "simple",
      "image": "https://d1wk4hs734fd0n.cloudfront.net/assets/genesis/products/towel/eve-sleep-towel-white.jpg",
      "description": "",
      "product_name": "Bath Towel - White",
      "category": "Clearance",
      "first_header_cart": "bath towel - white",
      "second_header_cart": "100 x 150 cm",
      "original_price": "25.0000",
      "final_price": "20.0000",
      "stock": 285,
      "related_products": [],
      "upsell_products": [],
      "crosssell_products": [],
      "content_set": [
        {
          "text": "",
          "image": "https://d1wk4hs734fd0n.cloudfront.net/assets/common/images/Cart-thumb/white-towel-lrg.png"
        }
      ],
      "attributes": {
        "size": "100x150",
        "color": "White"
      },
      "option": "Towel Configurable Product",
      "url": "/bathroom/towel"
    },
    {
      "id": "834",
      "name": "Bath Towel - 100 x 150cm",
      "sku": "EVETOW102",
      "type": "simple",
      "image": "https://d1wk4hs734fd0n.cloudfront.net/assets/genesis/products/towel/eve-sleep-towel-grey.jpg",
      "description": "",
      "product_name": "Bath Towel - Pebble Grey",
      "category": "Clearance",
      "first_header_cart": "bath towel - grey",
      "second_header_cart": "100 x 150 cm",
      "original_price": "25.0000",
      "final_price": "20.0000",
      "stock": 252,
      "related_products": [],
      "upsell_products": [],
      "crosssell_products": [],
      "content_set": [
        {
          "text": "",
          "image": "https://d1wk4hs734fd0n.cloudfront.net/assets/common/images/Cart-thumb/grey-towel-lrg.png"
        }
      ],
      "attributes": {
        "size": "100x150",
        "color": "Pebble_Grey"
      },
      "option": "Towel Configurable Product",
      "url": "/bathroom/towel"
    },
    {
      "id": "832",
      "name": "Hand & Hair Towel - 50 x 125cm",
      "sku": "EVETOW002",
      "type": "simple",
      "image": "https://d1wk4hs734fd0n.cloudfront.net/assets/genesis/products/towel/eve-sleep-towel-grey.jpg",
      "description": "",
      "product_name": "Hand And Hair Towel - Pebble Grey",
      "category": "Clearance",
      "first_header_cart": "the towel - grey",
      "second_header_cart": "50 x 125 cm",
      "original_price": "20.0000",
      "final_price": "15.0000",
      "stock": 167,
      "related_products": [],
      "upsell_products": [],
      "crosssell_products": [],
      "content_set": [
        {
          "text": "",
          "image": "https://d1wk4hs734fd0n.cloudfront.net/assets/common/images/Cart-thumb/grey-towel-sm.png"
        }
      ],
      "attributes": {
        "size": "50x125",
        "color": "Pebble_Grey"
      },
      "option": "Towel Configurable Product",
      "url": "/bathroom/towel"
    },
    {
      "id": "79",
      "name": "Emperor - 290 x 235 (4.5 tog)",
      "sku": "UKDUV008",
      "type": "simple",
      "image": "https://d1wk4hs734fd0n.cloudfront.net/assets/genesis/products/duck_down_duvet/eve-sleep-duck-down-duvet.jpg",
      "description": "",
      "product_name": "Spring/Summer Duvet - 290x235 (4.5 tog)",
      "category": "Clearance",
      "first_header_cart": "the duvet - 4.5 Tog",
      "second_header_cart": "Emperor - 290 x 235 cm",
      "original_price": "125.0000",
      "final_price": "105.0000",
      "stock": 18,
      "related_products": [],
      "upsell_products": [],
      "crosssell_products": [],
      "content_set": [
        {
          "text": "",
          "image": "https://d1wk4hs734fd0n.cloudfront.net/assets/common/images/Cart-thumb/cart-duvet-thumb.png"
        }
      ],
      "attributes": {
        "size": "290x235",
        "tog": "4.5 tog"
      },
      "option": "4.5 tog",
      "url": "/duck-down-duvet"
    },
    {
      "id": "84",
      "name": "Emperor- 290 x 235 (9 tog)",
      "sku": "UKDUV1008",
      "type": "simple",
      "image": "https://d1wk4hs734fd0n.cloudfront.net/assets/genesis/products/duck_down_duvet/eve-sleep-duck-down-duvet.jpg",
      "description": "",
      "product_name": "Autumn/Winter Duvet - 290x235 (9 tog)",
      "category": "Clearance",
      "first_header_cart": "the duvet - 9 Tog",
      "second_header_cart": "Emperor - 290 x 235 cm",
      "original_price": "159.0000",
      "final_price": "120.0000",
      "stock": 4,
      "related_products": [],
      "upsell_products": [],
      "crosssell_products": [],
      "content_set": [
        {
          "text": "",
          "image": "https://d1wk4hs734fd0n.cloudfront.net/assets/common/images/Cart-thumb/cart-duvet-thumb.png"
        }
      ],
      "attributes": {
        "size": "290x235",
        "tog": "10.5 tog"
      },
      "option": "9 tog",
      "url": "/duck-down-duvet"
    },
    {
      "id": "903",
      "name": "throw | £40",
      "sku": "EVEKT02",
      "type": "simple",
      "image": "https://d1wk4hs734fd0n.cloudfront.net/assets/genesis/products/throw/eve-sleep-grey-throw.jpg",
      "description": "",
      "product_name": "the throw",
      "category": "Clearance",
      "first_header_cart": "the throw",
      "second_header_cart": "135 x 170 cm - dark grey",
      "original_price": "79.0000",
      "final_price": "40.0000",
      "stock": 29,
      "related_products": [],
      "upsell_products": [],
      "crosssell_products": [],
      "content_set": [
        {
          "text": "",
          "image": "https://d1wk4hs734fd0n.cloudfront.net/assets/common/images/Cart-thumb/grey-throw.png"
        }
      ],
      "attributes": {
        "color": "Dark_Grey"
      },
      "option": "Throw Configurable Product",
      "url": "/bedding/throws"
    },
    {
      "id": "78",
      "name": "Super King - 260 x 220 (4.5 tog)",
      "sku": "UKDUV007",
      "type": "simple",
      "image": "https://d1wk4hs734fd0n.cloudfront.net/assets/genesis/products/duck_down_duvet/eve-sleep-duck-down-duvet.jpg",
      "description": "",
      "product_name": "Spring/Summer Duvet - 260x220 (4.5 tog)",
      "category": "Clearance",
      "first_header_cart": "the duvet - 4.5 Tog",
      "second_header_cart": "Super King - 260 x 220 cm",
      "original_price": "109.0000",
      "final_price": "80.0000",
      "stock": 7,
      "related_products": [],
      "upsell_products": [],
      "crosssell_products": [],
      "content_set": [
        {
          "text": "",
          "image": "https://d1wk4hs734fd0n.cloudfront.net/assets/common/images/Cart-thumb/cart-duvet-thumb.png"
        }
      ],
      "attributes": {
        "size": "260x220",
        "tog": "4.5 tog"
      },
      "option": "4.5 tog",
      "url": "/duck-down-duvet"
    },
    {
      "id": "904",
      "name": "throw | £40",
      "sku": "EVEKT01",
      "type": "simple",
      "image": "https://d1wk4hs734fd0n.cloudfront.net/assets/genesis/products/throw/eve-sleep-teal-throw.jpg",
      "description": "",
      "product_name": "the throw",
      "category": "Clearance",
      "first_header_cart": "the throw",
      "second_header_cart": "135 x 170 cm - teal",
      "original_price": "79.0000",
      "final_price": "40.0000",
      "stock": 102,
      "related_products": [],
      "upsell_products": [],
      "crosssell_products": [],
      "content_set": [
        {
          "text": "",
          "image": "https://d1wk4hs734fd0n.cloudfront.net/assets/common/images/Cart-thumb/teal-throw.png"
        }
      ],
      "attributes": {
        "color": "Teal"
      },
      "option": "Throw Configurable Product",
      "url": "/bedding/throws"
    },
    {
      "id": "710",
      "name": "Extra Large | £30",
      "sku": "EPJS04",
      "type": "simple",
      "image": "https://d1wk4hs734fd0n.cloudfront.net/assets/genesis/products/folk_pjs/eve-sleep-folk-pyjamas-top.jpg",
      "description": "",
      "product_name": "folk - men's pyjama shirt",
      "category": "Clearance",
      "first_header_cart": "folk - men's pyjama shirt",
      "second_header_cart": "Extra Large",
      "original_price": "59.0000",
      "final_price": "30.0000",
      "stock": 6,
      "related_products": [],
      "upsell_products": [],
      "crosssell_products": [],
      "content_set": [
        {
          "text": "",
          "image": "https://d1wk4hs734fd0n.cloudfront.net/assets/common/images/folk/products/thumbnails/top-folk.png"
        }
      ],
      "attributes": {
        "size": "Extra Large"
      },
      "option": "Men's shirts",
      "url": "/collaborations/folk-pyjamas"
    },
    {
      "id": "711",
      "name": "Extra Small | £30",
      "sku": "EPJS11",
      "type": "simple",
      "image": "https://d1wk4hs734fd0n.cloudfront.net/assets/genesis/products/folk_pjs/eve-sleep-folk-pyjamas-top.jpg",
      "description": "",
      "product_name": "folk - women's pyjama shirt",
      "category": "Clearance",
      "first_header_cart": "folk - women's pyjama shirt",
      "second_header_cart": "Extra Small",
      "original_price": "59.0000",
      "final_price": "30.0000",
      "stock": 11,
      "related_products": [],
      "upsell_products": [],
      "crosssell_products": [],
      "content_set": [
        {
          "text": "",
          "image": "https://d1wk4hs734fd0n.cloudfront.net/assets/common/images/folk/products/thumbnails/top-folk.png"
        }
      ],
      "attributes": {
        "size": "extra small"
      },
      "option": "Women's shirt",
      "url": "/collaborations/folk-pyjamas"
    },
    {
      "id": "714",
      "name": "Large | £30",
      "sku": "EPJS14",
      "type": "simple",
      "image": "https://d1wk4hs734fd0n.cloudfront.net/assets/genesis/products/folk_pjs/eve-sleep-folk-pyjamas-top.jpg",
      "description": "",
      "product_name": "folk - women's pyjama shirt",
      "category": "Clearance",
      "first_header_cart": "folk - women's pyjama shirt",
      "second_header_cart": "Large",
      "original_price": "59.0000",
      "final_price": "30.0000",
      "stock": 4,
      "related_products": [],
      "upsell_products": [],
      "crosssell_products": [],
      "content_set": [
        {
          "text": "",
          "image": "https://d1wk4hs734fd0n.cloudfront.net/assets/common/images/folk/products/thumbnails/top-folk.png"
        }
      ],
      "attributes": {
        "size": "Large"
      },
      "option": "Women's shirt",
      "url": "/collaborations/folk-pyjamas"
    },
    {
      "id": "720",
      "name": "Small | £30",
      "sku": "EPJT12",
      "type": "simple",
      "image": "https://d1wk4hs734fd0n.cloudfront.net/assets/genesis/products/folk_pjs/eve-sleep-folk-pyjamas-bottom.jpg",
      "description": "",
      "product_name": "folk - women's pyjama trousers",
      "category": "Clearance",
      "first_header_cart": "folk - women's pyjama trousers",
      "second_header_cart": "Small",
      "original_price": "59.0000",
      "final_price": "30.0000",
      "stock": 37,
      "related_products": [],
      "upsell_products": [],
      "crosssell_products": [],
      "content_set": [
        {
          "text": "",
          "image": "https://d1wk4hs734fd0n.cloudfront.net/assets/common/images/folk/products/thumbnails/trousers-folk.png"
        }
      ],
      "attributes": {
        "size": "Small"
      },
      "option": "Women's trousers",
      "url": "/collaborations/folk-pyjamas"
    },
    {
      "id": "707",
      "name": "Small | £30",
      "sku": "EPJS01",
      "type": "simple",
      "image": "https://d1wk4hs734fd0n.cloudfront.net/assets/genesis/products/folk_pjs/eve-sleep-folk-pyjamas-top.jpg",
      "description": "",
      "product_name": "folk - men's pyjama shirt",
      "category": "Clearance",
      "first_header_cart": "folk - men's pyjama shirt",
      "second_header_cart": "Small",
      "original_price": "59.0000",
      "final_price": "30.0000",
      "stock": 11,
      "related_products": [],
      "upsell_products": [],
      "crosssell_products": [],
      "content_set": [
        {
          "text": "",
          "image": "https://d1wk4hs734fd0n.cloudfront.net/assets/common/images/folk/products/thumbnails/top-folk.png"
        }
      ],
      "attributes": {
        "size": "Small"
      },
      "option": "Men's shirts",
      "url": "/collaborations/folk-pyjamas"
    },
    {
      "id": "708",
      "name": "Medium | £30",
      "sku": "EPJS02",
      "type": "simple",
      "image": "https://d1wk4hs734fd0n.cloudfront.net/assets/genesis/products/folk_pjs/eve-sleep-folk-pyjamas-top.jpg",
      "description": "",
      "product_name": "folk - men's pyjama shirt",
      "category": "Clearance",
      "first_header_cart": "folk - men's pyjama shirt",
      "second_header_cart": "Medium",
      "original_price": "59.0000",
      "final_price": "30.0000",
      "stock": 43,
      "related_products": [],
      "upsell_products": [],
      "crosssell_products": [],
      "content_set": [
        {
          "text": "",
          "image": "https://d1wk4hs734fd0n.cloudfront.net/assets/common/images/folk/products/thumbnails/top-folk.png"
        }
      ],
      "attributes": {
        "size": "Medium"
      },
      "option": "Men's shirts",
      "url": "/collaborations/folk-pyjamas"
    },
    {
      "id": "709",
      "name": "Large | £30",
      "sku": "EPJS03",
      "type": "simple",
      "image": "https://d1wk4hs734fd0n.cloudfront.net/assets/genesis/products/folk_pjs/eve-sleep-folk-pyjamas-top.jpg",
      "description": "",
      "product_name": "folk - men's pyjama shirt",
      "category": "Clearance",
      "first_header_cart": "folk - men's pyjama shirt",
      "second_header_cart": "Large",
      "original_price": "59.0000",
      "final_price": "30.0000",
      "stock": 19,
      "related_products": [],
      "upsell_products": [],
      "crosssell_products": [],
      "content_set": [
        {
          "text": "",
          "image": "https://d1wk4hs734fd0n.cloudfront.net/assets/common/images/folk/products/thumbnails/top-folk.png"
        }
      ],
      "attributes": {
        "size": "Large"
      },
      "option": "Men's shirts",
      "url": "/collaborations/folk-pyjamas"
    }
  ],
  "first_page_url": "https://www.evemattress.co.uk/sale?page=1",
  "from": 1,
  "last_page": 3,
  "last_page_url": "https://www.evemattress.co.uk/sale?page=3",
  "next_page_url": "https://www.evemattress.co.uk/sale?page=2",
  "path": "https://www.evemattress.co.uk/sale",
  "per_page": 20,
  "prev_page_url": null,
  "to": 20,
  "total": 42
}